{
  "composition": {
    "section": "layout",
    "pathFrom": "../../assets/styles",
    "pathTo": "../../../../../../dist/esanum-ui/lib/assets/styles",
    "from": [
      "skeleton/_skeleton.scss"
    ],
    "to": "_skeleton.scss"
  },
  "encapsuler": [
    {
      "host": "sk",
      "name": "skeleton",
      "html": {
        "from": "skeleton.component.html",
        "to": "skeleton.encapsulated.html"
      },
      "scss": {
        "from": "skeleton.component.scss",
        "to": "../../assets/styles/layout/skeleton/_skeleton.scss"
      }
    }
  ]
}
